<?xml version="1.0" standalone="no"?>
<!DOCTYPE svg PUBLIC "-//W3C//DTD SVG 20010904//EN"
 "http://www.w3.org/TR/2001/REC-SVG-20010904/DTD/svg10.dtd">
<svg version="1.0" xmlns="http://www.w3.org/2000/svg"
 width="800.000000pt" height="800.000000pt" viewBox="0 0 800.000000 800.000000"
 preserveAspectRatio="xMidYMid meet">
<metadata>
Created by potrace 1.11, written by Peter Selinger 2001-2013
</metadata>
<g transform="translate(0.000000,800.000000) scale(0.100000,-0.100000)"
fill="#000000" stroke="none">
<path d="M0 4000 l0 -4000 4000 0 4000 0 0 4000 0 4000 -4000 0 -4000 0 0
-4000z m3216 1843 l431 -437 -70 -81 c-39 -44 -100 -126 -137 -181 l-67 -102
-297 297 -298 298 -721 -724 c-397 -398 -723 -728 -725 -733 -2 -5 323 -336
722 -737 l726 -728 724 730 724 730 -95 96 -95 97 21 67 c39 119 124 268 186
325 l27 25 298 -305 298 -305 -267 -270 c-147 -148 -617 -623 -1045 -1054
l-779 -784 -1041 1048 c-573 576 -1043 1052 -1044 1057 -4 8 2074 2108 2087
2108 3 1 200 -196 437 -437z m1924 -158 c206 -39 402 -118 574 -232 133 -88
328 -282 415 -412 164 -248 246 -499 258 -791 10 -241 -29 -460 -118 -669 -34
-81 -116 -230 -161 -293 -10 -14 70 -99 590 -623 331 -333 602 -612 602 -618
0 -14 -300 -317 -315 -317 -5 -1 -281 273 -611 607 l-601 608 -71 -47 c-281
-187 -632 -280 -949 -249 -148 14 -316 55 -448 110 -95 39 -271 139 -324 182
l-25 20 161 161 161 161 123 -61 c163 -80 255 -104 434 -110 105 -3 162 0 229
12 409 77 730 379 837 789 28 104 37 324 19 435 -77 479 -469 846 -950 891
-316 29 -618 -80 -844 -306 -139 -139 -230 -300 -283 -502 -21 -79 -26 -122
-27 -239 l-2 -142 -184 -185 c-101 -102 -188 -181 -192 -177 -12 13 -55 194
-68 289 -16 119 -8 411 15 513 144 647 640 1113 1283 1205 120 18 353 13 472
-10z"/>
</g>
</svg>
